/home/testmachine/compiler2016-testcases/passed/basicopt1-5100309127-hetianxing : 682083
/home/testmachine/compiler2016-testcases/passed/bulgarian-5110379024-wuhang : 1488703
/home/testmachine/compiler2016-testcases/passed/expr-5110309085-jintianxing : 38220
/home/testmachine/compiler2016-testcases/passed/hanoi-5100379110-daibo : 295787
/home/testmachine/compiler2016-testcases/passed/hashmap-5100309127-hetianxing : 290692
/home/testmachine/compiler2016-testcases/passed/heapsort-5100379110-daibo : 17742039
/home/testmachine/compiler2016-testcases/passed/horse2-5100309153-yanghuan : 10953599
/home/testmachine/compiler2016-testcases/passed/horse3-5100309153-yanghuan : 13829325
/home/testmachine/compiler2016-testcases/passed/horse-5100309153-yanghuan : 10919964
/home/testmachine/compiler2016-testcases/passed/magic-5100309153-yanghuan : 1988840
/home/testmachine/compiler2016-testcases/passed/maxflow-5100379110-daibo : 17284882
/home/testmachine/compiler2016-testcases/passed/prime-5100309153-yanghuan : 6174094
/home/testmachine/compiler2016-testcases/passed/qsort-5100379110-daibo : 4826611
/home/testmachine/compiler2016-testcases/passed/queens-5100379110-daibo : 1232787
/home/testmachine/compiler2016-testcases/passed/spill2-5100379110-daibo : 69602
/home/testmachine/compiler2016-testcases/passed/superloop-5090379042-jiaxiao : 3140219
/home/testmachine/compiler2016-testcases/passed/tak-5090379042-jiaxiao : 1326903
/home/testmachine/compiler2016-testcases/passed/twinprime-5090379042-jiaxiao : 1913022
count: 46/48
