/home/testmachine/compiler2016-testcases/passed/basicopt1-5100309127-hetianxing : 1278118
/home/testmachine/compiler2016-testcases/passed/bulgarian-5110379024-wuhang : 1817995
/home/testmachine/compiler2016-testcases/passed/expr-5110309085-jintianxing : 61058
/home/testmachine/compiler2016-testcases/passed/hanoi-5100379110-daibo : 88566
/home/testmachine/compiler2016-testcases/passed/hashmap-5100309127-hetianxing : 472564
/home/testmachine/compiler2016-testcases/passed/heapsort-5100379110-daibo : 22814863
/home/testmachine/compiler2016-testcases/passed/horse2-5100309153-yanghuan : 13335390
/home/testmachine/compiler2016-testcases/passed/horse3-5100309153-yanghuan : 16496447
/home/testmachine/compiler2016-testcases/passed/horse-5100309153-yanghuan : 12582070
/home/testmachine/compiler2016-testcases/passed/magic-5100309153-yanghuan : 2790603
/home/testmachine/compiler2016-testcases/passed/maxflow-5100379110-daibo : 23373346
/home/testmachine/compiler2016-testcases/passed/prime-5100309153-yanghuan : 7750470
/home/testmachine/compiler2016-testcases/passed/qsort-5100379110-daibo : 5368482
/home/testmachine/compiler2016-testcases/passed/queens-5100379110-daibo : 1621278
/home/testmachine/compiler2016-testcases/passed/spill2-5100379110-daibo : 18768
/home/testmachine/compiler2016-testcases/passed/superloop-5090379042-jiaxiao : 4500472
/home/testmachine/compiler2016-testcases/passed/tak-5090379042-jiaxiao : 1515942
/home/testmachine/compiler2016-testcases/passed/twinprime-5090379042-jiaxiao : 2283941
count: 38/48
