/home/testmachine/compiler2016-testcases/passed/basicopt1-5100309127-hetianxing : 1097115
/home/testmachine/compiler2016-testcases/passed/bulgarian-5110379024-wuhang : 1416240
/home/testmachine/compiler2016-testcases/passed/expr-5110309085-jintianxing : 36330
/home/testmachine/compiler2016-testcases/passed/hanoi-5100379110-daibo : 363738
/home/testmachine/compiler2016-testcases/passed/hashmap-5100309127-hetianxing : 432149
/home/testmachine/compiler2016-testcases/passed/heapsort-5100379110-daibo : 19934853
/home/testmachine/compiler2016-testcases/passed/horse2-5100309153-yanghuan : 13397733
/home/testmachine/compiler2016-testcases/passed/horse3-5100309153-yanghuan : 17297935
/home/testmachine/compiler2016-testcases/passed/horse-5100309153-yanghuan : 13637968
/home/testmachine/compiler2016-testcases/passed/magic-5100309153-yanghuan : 2257735
/home/testmachine/compiler2016-testcases/passed/maxflow-5100379110-daibo : 20720737
/home/testmachine/compiler2016-testcases/passed/prime-5100309153-yanghuan : 6817865
/home/testmachine/compiler2016-testcases/passed/qsort-5100379110-daibo : 4491250
/home/testmachine/compiler2016-testcases/passed/queens-5100379110-daibo : 1373577
/home/testmachine/compiler2016-testcases/passed/spill2-5100379110-daibo : 13870
/home/testmachine/compiler2016-testcases/passed/superloop-5090379042-jiaxiao : 3689473
/home/testmachine/compiler2016-testcases/passed/tak-5090379042-jiaxiao : 2122193
/home/testmachine/compiler2016-testcases/passed/twinprime-5090379042-jiaxiao : 1939078
count: 44/48
