/home/testmachine/compiler2016-testcases/passed/basicopt1-5100309127-hetianxing : 526279
/home/testmachine/compiler2016-testcases/passed/bulgarian-5110379024-wuhang : 1330911
/home/testmachine/compiler2016-testcases/passed/expr-5110309085-jintianxing : FAILED
/home/testmachine/compiler2016-testcases/passed/hanoi-5100379110-daibo : 361760
/home/testmachine/compiler2016-testcases/passed/hashmap-5100309127-hetianxing : 508938
/home/testmachine/compiler2016-testcases/passed/heapsort-5100379110-daibo : 11964958
/home/testmachine/compiler2016-testcases/passed/horse2-5100309153-yanghuan : FAILED
/home/testmachine/compiler2016-testcases/passed/horse3-5100309153-yanghuan : FAILED
/home/testmachine/compiler2016-testcases/passed/horse-5100309153-yanghuan : FAILED
/home/testmachine/compiler2016-testcases/passed/magic-5100309153-yanghuan : FAILED
/home/testmachine/compiler2016-testcases/passed/maxflow-5100379110-daibo : 13440353
/home/testmachine/compiler2016-testcases/passed/multiarray-5100309153-yanghuan : FAILED
/home/testmachine/compiler2016-testcases/passed/pi-5090379042-jiaxiao : FAILED
/home/testmachine/compiler2016-testcases/passed/prime-5100309153-yanghuan : FAILED
/home/testmachine/compiler2016-testcases/passed/qsort-5100379110-daibo : 3272566
/home/testmachine/compiler2016-testcases/passed/queens-5100379110-daibo : 1092902
/home/testmachine/compiler2016-testcases/passed/spill2-5100379110-daibo : 80711
/home/testmachine/compiler2016-testcases/passed/statement_test-huyuncong : FAILED
/home/testmachine/compiler2016-testcases/passed/superloop-5090379042-jiaxiao : 9150815
/home/testmachine/compiler2016-testcases/passed/tak-5090379042-jiaxiao : 881924
/home/testmachine/compiler2016-testcases/passed/twinprime-5090379042-jiaxiao : 987677
count: 32/48
