/home/testmachine/compiler2016-testcases/passed/basicopt1-5100309127-hetianxing : 612392
/home/testmachine/compiler2016-testcases/passed/bulgarian-5110379024-wuhang : 1325548
/home/testmachine/compiler2016-testcases/passed/expr-5110309085-jintianxing : 38030
/home/testmachine/compiler2016-testcases/passed/hanoi-5100379110-daibo : 289642
/home/testmachine/compiler2016-testcases/passed/hashmap-5100309127-hetianxing : 526687
/home/testmachine/compiler2016-testcases/passed/heapsort-5100379110-daibo : 13338811
/home/testmachine/compiler2016-testcases/passed/horse2-5100309153-yanghuan : 8829394
/home/testmachine/compiler2016-testcases/passed/horse3-5100309153-yanghuan : 13400336
/home/testmachine/compiler2016-testcases/passed/horse-5100309153-yanghuan : 10831421
/home/testmachine/compiler2016-testcases/passed/magic-5100309153-yanghuan : 1806327
/home/testmachine/compiler2016-testcases/passed/maxflow-5100379110-daibo : 16167598
/home/testmachine/compiler2016-testcases/passed/prime-5100309153-yanghuan : 5008773
/home/testmachine/compiler2016-testcases/passed/qsort-5100379110-daibo : 3696742
/home/testmachine/compiler2016-testcases/passed/queens-5100379110-daibo : 999461
/home/testmachine/compiler2016-testcases/passed/spill2-5100379110-daibo : 67800
/home/testmachine/compiler2016-testcases/passed/superloop-5090379042-jiaxiao : 4261177
/home/testmachine/compiler2016-testcases/passed/tak-5090379042-jiaxiao : 1606876
/home/testmachine/compiler2016-testcases/passed/twinprime-5090379042-jiaxiao : 1322644
count: 47/48
