/home/testmachine/compiler2016-testcases/passed/basicopt1-5100309127-hetianxing : 449312
/home/testmachine/compiler2016-testcases/passed/bulgarian-5110379024-wuhang : 847259
/home/testmachine/compiler2016-testcases/passed/expr-5110309085-jintianxing : 36853
/home/testmachine/compiler2016-testcases/passed/hanoi-5100379110-daibo : 63971
/home/testmachine/compiler2016-testcases/passed/hashmap-5100309127-hetianxing : 273652
/home/testmachine/compiler2016-testcases/passed/heapsort-5100379110-daibo : 10028540
/home/testmachine/compiler2016-testcases/passed/horse2-5100309153-yanghuan : 6430808
/home/testmachine/compiler2016-testcases/passed/horse3-5100309153-yanghuan : 10165277
/home/testmachine/compiler2016-testcases/passed/horse-5100309153-yanghuan : 8134569
/home/testmachine/compiler2016-testcases/passed/magic-5100309153-yanghuan : 1353357
/home/testmachine/compiler2016-testcases/passed/maxflow-5100379110-daibo : 13541110
/home/testmachine/compiler2016-testcases/passed/prime-5100309153-yanghuan : 4064266
/home/testmachine/compiler2016-testcases/passed/qsort-5100379110-daibo : 2183992
/home/testmachine/compiler2016-testcases/passed/queens-5100379110-daibo : 809829
/home/testmachine/compiler2016-testcases/passed/spill2-5100379110-daibo : 16642
/home/testmachine/compiler2016-testcases/passed/superloop-5090379042-jiaxiao : 2385001
/home/testmachine/compiler2016-testcases/passed/tak-5090379042-jiaxiao : 1258173
/home/testmachine/compiler2016-testcases/passed/twinprime-5090379042-jiaxiao : 998930
count: 48/48
